Transformations of breast cancer transcriptional cohorts
…
We are going to focus on a package called \({\tt dplyr}\) today. It’s also part of the \({\tt tidyverse}\).

If \({\tt ggplot2}\) is the grammar of plots, \({\tt dplyr}\) is the grammer of data transformation.

library(tidyverse)
load("~/data/GDC/TCGA_BRCA/small_brca.Rdata")   # load the BC dataset
#View(small_brca)                # handy to have that open for exploration

Note the class of the different attributes

There are three classes here: \({\tt character (chr)}\), \({\tt lgl (logical)}\) and \({\tt dbl (double)}\). Note that \({\tt double}\) is the same as \({\tt numeric}\). Historical anomaly.

small_brca               
## # A tibble: 1,215 x 79
##    id    tss   participant barcode bcr_patient_uuid form_completion…
##    <chr> <chr> <chr>       <chr>   <chr>            <chr>           
##  1 TCGA… E9    A1NF        TCGA-E… a8b1f6e7-2bcf-4… 2011-6-23       
##  2 TCGA… D8    A27M        TCGA-D… ae65baeb-6b78-4… 2011-7-17       
##  3 TCGA… BH    A0GZ        TCGA-B… 27dfb9d4-3a2c-4… 2010-11-10      
##  4 TCGA… BH    A18V        TCGA-B… 6b960b58-28e1-4… 2011-7-2        
##  5 TCGA… A7    A13G        TCGA-A… 6cd9baf5-bbe0-4… 2011-5-16       
##  6 TCGA… C8    A275        TCGA-C… ce887e90-0660-4… 2011-7-21       
##  7 TCGA… AN    A0XS        TCGA-A… 95e949d3-b1f3-4… 2011-3-28       
##  8 TCGA… OL    A5RW        TCGA-O… A82D0A57-4383-4… 2013-5-16       
##  9 TCGA… OL    A5RX        TCGA-O… 43C0BEC6-6FAC-4… 2013-5-16       
## 10 TCGA… E9    A1RD        TCGA-E… 5fe3c51f-65e2-4… 2011-7-28       
## # … with 1,205 more rows, and 73 more variables: birth_days_to <chr>,
## #   gender <chr>, menopause_status <chr>, race <chr>, ethnicity <chr>,
## #   tumor_status <chr>, vital_status <chr>, death_days_to <chr>,
## #   histologic_diagnosis_other <chr>, initial_pathologic_dx_year <chr>,
## #   age_at_diagnosis <chr>, micromet_detection_by_ihc <chr>,
## #   lymph_nodes_examined_count <chr>, ajcc_pathologic_tumor_stage <chr>,
## #   er_status_by_ihc <chr>, er_status_ihc_Percent_Positive <chr>,
## #   pr_status_by_ihc <chr>, pr_status_ihc_percent_positive <chr>,
## #   her2_fish_status <chr>, her2_copy_number <chr>, histological_type <chr>,
…
Filtering out normal samples

(tumor_brca <- filter(small_brca, tumor==TRUE))               
## # A tibble: 1,102 x 79
##    id    tss   participant barcode bcr_patient_uuid form_completion…
##    <chr> <chr> <chr>       <chr>   <chr>            <chr>           
##  1 TCGA… E9    A1NF        TCGA-E… a8b1f6e7-2bcf-4… 2011-6-23       
##  2 TCGA… D8    A27M        TCGA-D… ae65baeb-6b78-4… 2011-7-17       
##  3 TCGA… BH    A0GZ        TCGA-B… 27dfb9d4-3a2c-4… 2010-11-10      
##  4 TCGA… BH    A18V        TCGA-B… 6b960b58-28e1-4… 2011-7-2        
##  5 TCGA… A7    A13G        TCGA-A… 6cd9baf5-bbe0-4… 2011-5-16       
##  6 TCGA… C8    A275        TCGA-C… ce887e90-0660-4… 2011-7-21       
##  7 TCGA… AN    A0XS        TCGA-A… 95e949d3-b1f3-4… 2011-3-28       
##  8 TCGA… OL    A5RW        TCGA-O… A82D0A57-4383-4… 2013-5-16       
##  9 TCGA… OL    A5RX        TCGA-O… 43C0BEC6-6FAC-4… 2013-5-16       
## 10 TCGA… E9    A1RD        TCGA-E… 5fe3c51f-65e2-4… 2011-7-28       
## # … with 1,092 more rows, and 73 more variables: birth_days_to <chr>,
## #   gender <chr>, menopause_status <chr>, race <chr>, ethnicity <chr>,
## #   tumor_status <chr>, vital_status <chr>, death_days_to <chr>,
## #   histologic_diagnosis_other <chr>, initial_pathologic_dx_year <chr>,
## #   age_at_diagnosis <chr>, micromet_detection_by_ihc <chr>,
## #   lymph_nodes_examined_count <chr>, ajcc_pathologic_tumor_stage <chr>,
## #   er_status_by_ihc <chr>, er_status_ihc_Percent_Positive <chr>,
## #   pr_status_by_ihc <chr>, pr_status_ihc_percent_positive <chr>,
## #   her2_fish_status <chr>, her2_copy_number <chr>, histological_type <chr>,
…
\({\tt unique()}\) returns the distinct (or unique) objects observed in a (long) vector of objects. Try removing the \({\tt unique()}\) call from above and see what happens.

There are four (of 15) types of objects that I would like to remove from the analysis to begin with: 9, 12, 13, 14.

Note the NA for #14. Not that same as the character “[Not Available]” #12 (but both must go!).

Filtering by TNM stage

(tnm_tumor_brca <- filter(tumor_brca, !( (is.na(ajcc_pathologic_tumor_stage) |
                                         (ajcc_pathologic_tumor_stage == "[Discrepancy]") |
                                         (ajcc_pathologic_tumor_stage == "[Not Available]") |
                                         (ajcc_pathologic_tumor_stage == "Stage X") ) )   ) )
## # A tibble: 1,078 x 79
##    id    tss   participant barcode bcr_patient_uuid form_completion…
##    <chr> <chr> <chr>       <chr>   <chr>            <chr>           
##  1 TCGA… E9    A1NF        TCGA-E… a8b1f6e7-2bcf-4… 2011-6-23       
##  2 TCGA… D8    A27M        TCGA-D… ae65baeb-6b78-4… 2011-7-17       
##  3 TCGA… BH    A0GZ        TCGA-B… 27dfb9d4-3a2c-4… 2010-11-10      
##  4 TCGA… BH    A18V        TCGA-B… 6b960b58-28e1-4… 2011-7-2        
##  5 TCGA… A7    A13G        TCGA-A… 6cd9baf5-bbe0-4… 2011-5-16       
##  6 TCGA… C8    A275        TCGA-C… ce887e90-0660-4… 2011-7-21       
##  7 TCGA… AN    A0XS        TCGA-A… 95e949d3-b1f3-4… 2011-3-28       
##  8 TCGA… OL    A5RW        TCGA-O… A82D0A57-4383-4… 2013-5-16       
##  9 TCGA… OL    A5RX        TCGA-O… 43C0BEC6-6FAC-4… 2013-5-16       
## 10 TCGA… E9    A1RD        TCGA-E… 5fe3c51f-65e2-4… 2011-7-28       
## # … with 1,068 more rows, and 73 more variables: birth_days_to <chr>,
## #   gender <chr>, menopause_status <chr>, race <chr>, ethnicity <chr>,
## #   tumor_status <chr>, vital_status <chr>, death_days_to <chr>,
## #   histologic_diagnosis_other <chr>, initial_pathologic_dx_year <chr>,
## #   age_at_diagnosis <chr>, micromet_detection_by_ihc <chr>,
## #   lymph_nodes_examined_count <chr>, ajcc_pathologic_tumor_stage <chr>,
## #   er_status_by_ihc <chr>, er_status_ihc_Percent_Positive <chr>,
## #   pr_status_by_ihc <chr>, pr_status_ihc_percent_positive <chr>,
## #   her2_fish_status <chr>, her2_copy_number <chr>, histological_type <chr>,
…
Selecting variables (columns)

Sometimes after you have downloaded data and wrangled it into a \({\tt tibble}\), there are some variables (columns) that you are perhaps not interested in.

The \({\tt select()}\) function is designed to easily pick out variables you want from those you don’t.

final_brca
## # A tibble: 1,078 x 79
##    id    tss   participant barcode bcr_patient_uuid form_completion…
##    <chr> <chr> <chr>       <chr>   <chr>            <chr>           
##  1 TCGA… BH    A1FG        TCGA-B… d4e7426c-9739-4… 2011-9-8        
##  2 TCGA… BH    A18P        TCGA-B… 557cb0a3-6f1b-4… 2011-6-22       
##  3 TCGA… BH    A1FD        TCGA-B… 3c8b5af9-c34d-4… 2011-9-8        
##  4 TCGA… BH    A1EU        TCGA-B… a1093598-d3a8-4… 2011-9-7        
##  5 TCGA… AO    A03U        TCGA-A… 0685edd2-ce1c-4… 2011-1-9        
##  6 TCGA… GM    A2D9        TCGA-G… 1133B8A9-6B11-4… 2011-9-28       
##  7 TCGA… BH    A18S        TCGA-B… 433427a1-bacf-4… 2011-7-2        
##  8 TCGA… BH    A1ET        TCGA-B… 8986a141-eae7-4… 2011-9-7        
##  9 TCGA… BH    A18K        TCGA-B… 50619f8c-10aa-4… 2011-6-9        
## 10 TCGA… B6    A0X0        TCGA-B… 1e68e760-a4cf-4… 2011-3-15       
## # … with 1,068 more rows, and 73 more variables: birth_days_to <chr>,
## #   gender <chr>, menopause_status <chr>, race <chr>, ethnicity <chr>,
## #   tumor_status <chr>, vital_status <chr>, death_days_to <dbl>,
## #   histologic_diagnosis_other <chr>, initial_pathologic_dx_year <chr>,
## #   age_at_diagnosis <chr>, micromet_detection_by_ihc <chr>,
## #   lymph_nodes_examined_count <chr>, ajcc_pathologic_tumor_stage <chr>,
## #   er_status_by_ihc <chr>, er_status_ihc_Percent_Positive <chr>,
## #   pr_status_by_ihc <chr>, pr_status_ihc_percent_positive <chr>,
## #   her2_fish_status <chr>, her2_copy_number <chr>, histological_type <chr>,
## #   metastatic_tumor_indicator <chr>, tumor <lgl>, ANLN <dbl>, FOXC1 <dbl>,
## #   CDH3 <dbl>, FGFR4 <dbl>, UBE2T <dbl>, NDC80 <dbl>, PGR <dbl>, BIRC5 <dbl>,
## #   ORC6 <dbl>, ESR1 <dbl>, PHGDH <dbl>, PTTG1 <dbl>, MELK <dbl>, NAT1 <dbl>,
## #   CXXC5 <dbl>, BCL2 <dbl>, RRM2 <dbl>, GPR160 <dbl>, EXO1 <dbl>, UBE2C <dbl>,
## #   TYMS <dbl>, KRT5 <dbl>, KRT14 <dbl>, MAPT <dbl>, CDC6 <dbl>, MMP11 <dbl>,
## #   MYBL2 <dbl>, SFRP1 <dbl>, CCNE1 <dbl>, BLVRA <dbl>, BAG1 <dbl>, MLPH <dbl>,
## #   CDC20 <dbl>, CENPF <dbl>, MIA <dbl>, KRT17 <dbl>, FOXA1 <dbl>,
## #   ACTR3B <dbl>, CCNB1 <dbl>, MDM2 <dbl>, MYC <dbl>, CEP55 <dbl>,
## #   SLC39A6 <dbl>, ERBB2 <dbl>, GRB7 <dbl>, KIF2C <dbl>, NUF2 <dbl>,
## #   EGFR <dbl>, MKI67 <dbl>, TMEM45B <dbl>

Selecting variables (columns)

(mini_brca <- select(final_brca, participant, birth_days_to, menopause_status, race, ethnicity))
## # A tibble: 1,078 x 5
##    participant birth_days_to menopause_status race  ethnicity             
##    <chr>       <chr>         <chr>            <chr> <chr>                 
##  1 A1FG        -32295        Post             WHITE NOT HISPANIC OR LATINO
##  2 A18P        -22222        Not Available    WHITE [Not Available]       
##  3 A1FD        -24940        Post             WHITE NOT HISPANIC OR LATINO
##  4 A1EU        -30339        Post             WHITE NOT HISPANIC OR LATINO
##  5 A03U        -11354        Pre              WHITE NOT HISPANIC OR LATINO
##  6 A2D9        -25490        Post             WHITE NOT HISPANIC OR LATINO
##  7 A18S        -28974        Post             WHITE NOT HISPANIC OR LATINO
##  8 A1ET        -20425        Not Available    WHITE NOT HISPANIC OR LATINO
##  9 A18K        -16824        Not Available    WHITE NOT HISPANIC OR LATINO
## 10 A0X0        -19802        Indeterminate    WHITE NOT HISPANIC OR LATINO
## # … with 1,068 more rows

But suppose we wanted to retain many columns (not just a few). Wearisome to type all of the columns into the \({\tt select()}\) call.

Selecting many variables with the colon operator

(mini_brca <- select(final_brca, participant, ANLN:TMEM45B ))
## # A tibble: 1,078 x 51
##    participant  ANLN FOXC1  CDH3 FGFR4 UBE2T NDC80   PGR BIRC5  ORC6   ESR1
##    <chr>       <dbl> <dbl> <dbl> <dbl> <dbl> <dbl> <dbl> <dbl> <dbl>  <dbl>
##  1 A1FG          816   436   542   187   384   475 10737  1795   425 102256
##  2 A18P         4099   276  1145 12773  1059   677    98  1867   222   4550
##  3 A1FD         2762   265  4416   913  1409   686 29929  4622   597  58483
##  4 A1EU          415   611   638    55   194   133 35489   323    72  75875
##  5 A03U          914  3998  9772    68   221   309   125   679   140    475
##  6 A2D9          850   405  2725  1878   505   365   756   308    75  40483
##  7 A18S          532   172   128  1577   570   170  8338   498   134  57101
##  8 A1ET          336   617   692   744   159   141 19071   411    83  73208
##  9 A18K         2541   351  1509   835  1636   610  3397  1849   205  18863
## 10 A0X0          629   226  3504   301  1054   579 15244  1370   198  23790
## # … with 1,068 more rows, and 40 more variables: PHGDH <dbl>, PTTG1 <dbl>,
## #   MELK <dbl>, NAT1 <dbl>, CXXC5 <dbl>, BCL2 <dbl>, RRM2 <dbl>, GPR160 <dbl>,
## #   EXO1 <dbl>, UBE2C <dbl>, TYMS <dbl>, KRT5 <dbl>, KRT14 <dbl>, MAPT <dbl>,
## #   CDC6 <dbl>, MMP11 <dbl>, MYBL2 <dbl>, SFRP1 <dbl>, CCNE1 <dbl>,
## #   BLVRA <dbl>, BAG1 <dbl>, MLPH <dbl>, CDC20 <dbl>, CENPF <dbl>, MIA <dbl>,
## #   KRT17 <dbl>, FOXA1 <dbl>, ACTR3B <dbl>, CCNB1 <dbl>, MDM2 <dbl>, MYC <dbl>,
## #   CEP55 <dbl>, SLC39A6 <dbl>, ERBB2 <dbl>, GRB7 <dbl>, KIF2C <dbl>,
## #   NUF2 <dbl>, EGFR <dbl>, MKI67 <dbl>, TMEM45B <dbl>

\({\tt x:y}\) selects all variables between \(x\) and \(y\) inclusive.

Removing variables with the minus operator

(mini_brca <- select(final_brca,  -c(id, tss, barcode:birth_days_to) ))
## # A tibble: 1,078 x 73
##    participant gender menopause_status race  ethnicity tumor_status vital_status
##    <chr>       <chr>  <chr>            <chr> <chr>     <chr>        <chr>       
##  1 A1FG        FEMALE Post             WHITE NOT HISP… [Not Availa… Dead        
##  2 A18P        FEMALE Not Available    WHITE [Not Ava… WITH TUMOR   Dead        
##  3 A1FD        FEMALE Post             WHITE NOT HISP… WITH TUMOR   Dead        
##  4 A1EU        FEMALE Post             WHITE NOT HISP… TUMOR FREE   Dead        
##  5 A03U        FEMALE Pre              WHITE NOT HISP… TUMOR FREE   Dead        
##  6 A2D9        FEMALE Post             WHITE NOT HISP… WITH TUMOR   Dead        
##  7 A18S        FEMALE Post             WHITE NOT HISP… TUMOR FREE   Dead        
##  8 A1ET        FEMALE Not Available    WHITE NOT HISP… TUMOR FREE   Dead        
##  9 A18K        FEMALE Not Available    WHITE NOT HISP… WITH TUMOR   Dead        
## 10 A0X0        FEMALE Indeterminate    WHITE NOT HISP… [Not Availa… Dead        
## # … with 1,068 more rows, and 66 more variables: death_days_to <dbl>,
## #   histologic_diagnosis_other <chr>, initial_pathologic_dx_year <chr>,
## #   age_at_diagnosis <chr>, micromet_detection_by_ihc <chr>,
## #   lymph_nodes_examined_count <chr>, ajcc_pathologic_tumor_stage <chr>,
## #   er_status_by_ihc <chr>, er_status_ihc_Percent_Positive <chr>,
## #   pr_status_by_ihc <chr>, pr_status_ihc_percent_positive <chr>,
## #   her2_fish_status <chr>, her2_copy_number <chr>, histological_type <chr>,
## #   metastatic_tumor_indicator <chr>, tumor <lgl>, ANLN <dbl>, FOXC1 <dbl>,
## #   CDH3 <dbl>, FGFR4 <dbl>, UBE2T <dbl>, NDC80 <dbl>, PGR <dbl>, BIRC5 <dbl>,
…
\({\tt -}\) removes all variables between \(x\) and \(y\) inclusive.

Re-ordering variables

Sometimes you don’t want to remove variables but just highlight certain variables you look at more often.

(hilite_brca <- select(final_brca, participant, ajcc_pathologic_tumor_stage, vital_status, death_days_to, everything() ))
## # A tibble: 1,078 x 79
##    participant ajcc_pathologic… vital_status death_days_to id    tss   barcode
##    <chr>       <chr>            <chr>                <dbl> <chr> <chr> <chr>  
##  1 A1FG        Stage I          Dead                   577 TCGA… BH    TCGA-B…
##  2 A18P        Stage I          Dead                   921 TCGA… BH    TCGA-B…
##  3 A1FD        Stage I          Dead                  1009 TCGA… BH    TCGA-B…
##  4 A1EU        Stage I          Dead                  1286 TCGA… BH    TCGA-B…
##  5 A03U        Stage I          Dead                  1793 TCGA… AO    TCGA-A…
##  6 A2D9        Stage I          Dead                  1812 TCGA… GM    TCGA-G…
##  7 A18S        Stage I          Dead                  2009 TCGA… BH    TCGA-B…
##  8 A1ET        Stage I          Dead                  2520 TCGA… BH    TCGA-B…
##  9 A18K        Stage I          Dead                  2763 TCGA… BH    TCGA-B…
## 10 A0X0        Stage I          Dead                  3945 TCGA… B6    TCGA-B…
## # … with 1,068 more rows, and 72 more variables: bcr_patient_uuid <chr>,
## #   form_completion_date <chr>, birth_days_to <chr>, gender <chr>,
## #   menopause_status <chr>, race <chr>, ethnicity <chr>, tumor_status <chr>,
## #   histologic_diagnosis_other <chr>, initial_pathologic_dx_year <chr>,
## #   age_at_diagnosis <chr>, micromet_detection_by_ihc <chr>,
## #   lymph_nodes_examined_count <chr>, er_status_by_ihc <chr>,
## #   er_status_ihc_Percent_Positive <chr>, pr_status_by_ihc <chr>,
## #   pr_status_ihc_percent_positive <chr>, her2_fish_status <chr>,
## #   her2_copy_number <chr>, histological_type <chr>,
## #   metastatic_tumor_indicator <chr>, tumor <lgl>, ANLN <dbl>, FOXC1 <dbl>,
## #   CDH3 <dbl>, FGFR4 <dbl>, UBE2T <dbl>, NDC80 <dbl>, PGR <dbl>, BIRC5 <dbl>,
## #   ORC6 <dbl>, ESR1 <dbl>, PHGDH <dbl>, PTTG1 <dbl>, MELK <dbl>, NAT1 <dbl>,
## #   CXXC5 <dbl>, BCL2 <dbl>, RRM2 <dbl>, GPR160 <dbl>, EXO1 <dbl>, UBE2C <dbl>,
## #   TYMS <dbl>, KRT5 <dbl>, KRT14 <dbl>, MAPT <dbl>, CDC6 <dbl>, MMP11 <dbl>,
## #   MYBL2 <dbl>, SFRP1 <dbl>, CCNE1 <dbl>, BLVRA <dbl>, BAG1 <dbl>, MLPH <dbl>,
## #   CDC20 <dbl>, CENPF <dbl>, MIA <dbl>, KRT17 <dbl>, FOXA1 <dbl>,
## #   ACTR3B <dbl>, CCNB1 <dbl>, MDM2 <dbl>, MYC <dbl>, CEP55 <dbl>,
## #   SLC39A6 <dbl>, ERBB2 <dbl>, GRB7 <dbl>, KIF2C <dbl>, NUF2 <dbl>,
## #   EGFR <dbl>, MKI67 <dbl>, TMEM45B <dbl>

Renaming variables

(simple_brca <- rename(hilite_brca,  stage = ajcc_pathologic_tumor_stage ))
## # A tibble: 1,078 x 79
##    participant stage vital_status death_days_to id    tss   barcode
##    <chr>       <chr> <chr>                <dbl> <chr> <chr> <chr>  
##  1 A1FG        Stag… Dead                   577 TCGA… BH    TCGA-B…
##  2 A18P        Stag… Dead                   921 TCGA… BH    TCGA-B…
##  3 A1FD        Stag… Dead                  1009 TCGA… BH    TCGA-B…
##  4 A1EU        Stag… Dead                  1286 TCGA… BH    TCGA-B…
##  5 A03U        Stag… Dead                  1793 TCGA… AO    TCGA-A…
##  6 A2D9        Stag… Dead                  1812 TCGA… GM    TCGA-G…
##  7 A18S        Stag… Dead                  2009 TCGA… BH    TCGA-B…
##  8 A1ET        Stag… Dead                  2520 TCGA… BH    TCGA-B…
##  9 A18K        Stag… Dead                  2763 TCGA… BH    TCGA-B…
## 10 A0X0        Stag… Dead                  3945 TCGA… B6    TCGA-B…
## # … with 1,068 more rows, and 72 more variables: bcr_patient_uuid <chr>,
## #   form_completion_date <chr>, birth_days_to <chr>, gender <chr>,
## #   menopause_status <chr>, race <chr>, ethnicity <chr>, tumor_status <chr>,
## #   histologic_diagnosis_other <chr>, initial_pathologic_dx_year <chr>,
## #   age_at_diagnosis <chr>, micromet_detection_by_ihc <chr>,
## #   lymph_nodes_examined_count <chr>, er_status_by_ihc <chr>,
## #   er_status_ihc_Percent_Positive <chr>, pr_status_by_ihc <chr>,
## #   pr_status_ihc_percent_positive <chr>, her2_fish_status <chr>,
## #   her2_copy_number <chr>, histological_type <chr>,
…
Grouping by variables and summarizing

Suppose we ask the question: For each stage of the disease, what is the mean number of days patients survived before passing away?

reordered_brca <- group_by(simple_brca,  stage, vital_status )
print(reordered_brca[8:30, 1:4])
## # A tibble: 23 x 4
## # Groups:   stage, vital_status [2]
##    participant stage   vital_status death_days_to
##    <chr>       <chr>   <chr>                <dbl>
##  1 A1ET        Stage I Dead                  2520
##  2 A18K        Stage I Dead                  2763
##  3 A0X0        Stage I Dead                  3945
##  4 A209        Stage I Dead                  3959
##  5 A0SB        Stage I Alive                   NA
##  6 A08A        Stage I Alive                   NA
##  7 A156        Stage I Alive                   NA
##  8 A095        Stage I Alive                   NA
##  9 A255        Stage I Alive                   NA
## 10 A24S        Stage I Alive                   NA
## # … with 13 more rows
…
