Gene finding with Hidden Markov Models
…
# data_path <- "/cloud/project/data"      #  for RStudio Cloud
anno <- read_rds( file.path( data_path, "annotations_1.0.rds" ))
sc <- read_rds( file.path( data_path, "sc_1.0.rds" ))
sc_meta <- read_rds( file.path( data_path, "sc_meta_1.0.rds" ))
go <- read_rds( file.path( data_path, "GO.rds" ))

Scerevisiae <- Genome(organism_name = "Saccharomyces cerevisiae",
                     chromosomes = sc,
                     chromosome_names = sc_meta,
                     annotations = anno,
                     GO = go)
Scerevisiae@organism_name
## [1] "Saccharomyces cerevisiae"
Scerevisiae@annotations
## # A tibble: 23,058 x 9
##    seqid source type       start    end score strand phase attributes           
##    <fct> <fct>  <fct>      <int>  <int> <dbl> <fct>  <fct> <chr>                
##  1 chrI  SGD    chromosome     1 230218    NA <NA>   <NA>  ID=chrI;dbxref=NCBI:…
##  2 chrI  SGD    telomere       1    801    NA -      <NA>  ID=TEL01L;Name=TEL01…
##  3 chrI  SGD    X_element    337    801    NA -      <NA>  ID=TEL01L_X_element;…
##  4 chrI  SGD    X_element…    63    336    NA -      <NA>  ID=TEL01L_X_element_…
##  5 chrI  SGD    telomeric…     1     62    NA -      <NA>  ID=TEL01L_telomeric_…
##  6 chrI  SGD    gene         335    649    NA +      <NA>  ID=YAL069W;Name=YAL0…
##  7 chrI  SGD    CDS          335    649    NA +      0     Parent=YAL069W_mRNA;…
##  8 chrI  SGD    mRNA         335    649    NA +      <NA>  ID=YAL069W_mRNA;Name…
##  9 chrI  SGD    gene         538    792    NA +      <NA>  ID=YAL068W-A;Name=YA…
## 10 chrI  SGD    CDS          538    792    NA +      0     Parent=YAL068W-A_mRN…
## # … with 23,048 more rows
…
