Exploratory data analysis of breast cancer transcriptomes
…
What’s up with \({\tt histologic\_diagnosis}\)?

brca %>% group_by(histologic_diagnosis_other) %>% summarize( nn <- n())
## `summarise()` ungrouping output (override with `.groups` argument)
## # A tibble: 60 x 2
##    histologic_diagnosis_other                                `nn <- n()`
##    <chr>                                                           <int>
##  1 [Not Applicable]                                                 1128
##  2 Adenocarcinoma with squamous differentiation, metaplastic           1
##  3 Adenoid Cystic Carcinoma                                            1
##  4 Apocrine                                                            1
##  5 Cribiform                                                           1
##  6 Ductal & Mucinous                                                   2
##  7 ductal and lobular                                                  2
##  8 ductal and lobular features                                         2
##  9 ductal and papillary                                                1
## 10 Ductal partially papillary                                          1
## # … with 50 more rows
…
There are at least two problems with histograms.

The choice of number of bin (which determines binwidth) can greatly affect the plot, and therefore our interpretations.

Outliers can cause the histogram to be somewhat vacuous, providing little resolution of the distribution for the majority of points. (This is true in the histograms of the previous page.)

It is wise to look at the outlier values, and note their source. Which observation do they arise in? Determinig why there are outlier values is important. Is it a technical problem with that sample? Did someone enter a value incorrectly? Has a bug in your code generated a spurious value? Is it true biological variability?

If it is a technical problem or mistake, it might be correct to remove it from the study. Do you remove the whole sample? Or do you just replace the outlier value in that sample with an \({\tt NA}\)? The latter is preferable if the whole sample is not an outlier.

Hunting for outliers

exprs <- brca %>% arrange(desc(ESR1)) %>% select(participant:tumor_status, ESR1)
print(exprs, n=15)
## # A tibble: 1,215 x 7
##    participant gender menopause_status race      ethnicity   tumor_status   ESR1
##    <chr>       <chr>  <chr>            <chr>     <chr>       <chr>         <dbl>
##  1 A1H2        FEMALE Post             WHITE     NOT HISPAN… TUMOR FREE   198790
##  2 A1HE        FEMALE Post             ASIAN     NOT HISPAN… TUMOR FREE   198790
##  3 A083        FEMALE Post             [Not Ava… [Not Avail… TUMOR FREE   167889
##  4 A26Z        FEMALE Post             ASIAN     NOT HISPAN… TUMOR FREE   167889
##  5 A1R7        FEMALE Post             WHITE     NOT HISPAN… TUMOR FREE   167889
##  6 A0DC        FEMALE Post             WHITE     NOT HISPAN… TUMOR FREE   160797
##  7 A3OD        FEMALE Post             WHITE     NOT HISPAN… TUMOR FREE   160797
##  8 A1XC        FEMALE Post             WHITE     NOT HISPAN… TUMOR FREE   160797
##  9 A12H        FEMALE Pre              BLACK OR… NOT HISPAN… TUMOR FREE   160797
## 10 A0TV        FEMALE Post             [Not Ava… [Not Avail… TUMOR FREE   154199
## 11 A1FR        FEMALE Not Available    WHITE     NOT HISPAN… WITH TUMOR   148507
## 12 A247        FEMALE Post             WHITE     NOT HISPAN… TUMOR FREE   148507
## 13 A0IC        FEMALE Post             WHITE     NOT HISPAN… [Not Availa… 148507
## 14 A156        FEMALE Post             WHITE     NOT HISPAN… TUMOR FREE   143338
## 15 A09K        FEMALE Post             [Not Ava… [Not Avail… TUMOR FREE   143338
## # … with 1,200 more rows
…
Take a moment to reassure yourself that the information in the original tibble is also present in the new tibble.

Melting \({\tt brca}\) to \({\tt lava}\)

melted_timmy <- melt( timmy, id.vars = "participant", 
                      measure.vars = c("ESR1", "ERBB2"))

brca %>% 
  select( c(participant, tumor, "ESR1", "PGR", "ERBB2", "EGFR", "KRT5" )) %>%
  melt(id.vars = c("participant", "tumor"), measure.vars = c("ESR1", "PGR", "ERBB2", "EGFR", "KRT5" )) %>%
  as_tibble -> lava
lava
## # A tibble: 6,075 x 4
##    participant tumor variable  value
##    <chr>       <lgl> <fct>     <dbl>
##  1 A1NF        TRUE  ESR1      39073
##  2 A27M        TRUE  ESR1        512
##  3 A0GZ        TRUE  ESR1      66040
##  4 A18V        TRUE  ESR1        472
##  5 A13G        TRUE  ESR1     133812
##  6 A275        TRUE  ESR1        359
##  7 A0XS        TRUE  ESR1      40853
##  8 A5RW        TRUE  ESR1         83
##  9 A5RX        TRUE  ESR1      17928
## 10 A1RD        TRUE  ESR1      91953
## # … with 6,065 more rows
…
