Quiz 4
…
1. Get CDS entries in annotations

Note: You could also filter and use gene instead of CDS

( cds <- scerevisiae_genome@annotations %>%
    filter(type == "CDS") %>%
    mutate(chromosome_num = str_remove(.$seqid, "chr")) %>% # Extract roman numerals
    filter(chromosome_num != "mt") # Remove mt
  )

## # A tibble: 6,999 x 10
##    seqid source type  start   end score strand phase attributes   chromosome_num
##    <fct> <fct>  <fct> <int> <int> <dbl> <fct>  <fct> <chr>        <chr>         
##  1 chrI  SGD    CDS     335   649    NA +      0     Parent=YAL0 I             
##  2 chrI  SGD    CDS     538   792    NA +      0     Parent=YAL0 I             
##  3 chrI  SGD    CDS    1807  2169    NA -      0     Parent=YAL0 I             
##  4 chrI  SGD    CDS    2480  2707    NA +      0     Parent=YAL0 I             
##  5 chrI  SGD    CDS    7235  9016    NA -      0     Parent=YAL0 I             
##  6 chrI  SGD    CDS   10091 10399    NA +      0     Parent=YAL0 I             
##  7 chrI  SGD    CDS   11565 11951    NA -      0     Parent=YAL0 I             
##  8 chrI  SGD    CDS   12046 12426    NA +      0     Parent=YAL0 I             
##  9 chrI  SGD    CDS   13363 13743    NA -      0     Parent=YAL0 I             
## 10 chrI  SGD    CDS   21566 21850    NA +      0     Parent=YAL0 I             
## #  with 6,989 more rows
…
