02-solution | BIOL 480/510/630: Bioinformatics
…
## [1] 1717.955

#e 
small_brca %>% filter( FOXC1 > 245 ) %>% nrow

## [1] 909

#f 
bw <- small_brca %>% filter( race=="BLACK OR AFRICAN AMERICAN", gender=="FEMALE", tumor==TRUE  )

#g 
small_brca %>% select( participant, vital_status, ANLN:TMEM45B ) %>% select( -RRM2 )

## # A tibble: 1,215 x 51
##    participant vital_status  ANLN FOXC1  CDH3 FGFR4 UBE2T NDC80   PGR BIRC5
##    <chr>       <chr>        <dbl> <dbl> <dbl> <dbl> <dbl> <dbl> <dbl> <dbl>
##  1 A1NF        Alive         2124   235   485   261  1002  1184   710  1242
##  2 A27M        Alive         4679  2068 15686   150   634   856    99  3429
##  3 A0GZ        Alive         1192   284  3999   171  1314   732  8793  1738
##  4 A18V        Dead         10191  2981 27406   473  1720  1853    76  4542
##  5 A13G        Alive          823   142   435    46    77    45  8804   152
##  6 A275        Alive        10198   265  6903  8835  2997  1887    76  5517
##  7 A0XS        Alive          669   294  1407   159   305   352 57567   673
##  8 A5RW        Alive         1342  5638  2975   195  2275  2572    12  5022
##  9 A5RX        Alive          420   531  5030   327   509   122 19520   284
## 10 A1RD        Alive         1124   189   299   649   679   550 21586   982
## # … with 1,205 more rows, and 41 more variables: ORC6 <dbl>, ESR1 <dbl>,
## #   PHGDH <dbl>, PTTG1 <dbl>, MELK <dbl>, NAT1 <dbl>, CXXC5 <dbl>, BCL2 <dbl>,
## #   GPR160 <dbl>, EXO1 <dbl>, UBE2C <dbl>, TYMS <dbl>, KRT5 <dbl>, KRT14 <dbl>,
## #   MAPT <dbl>, CDC6 <dbl>, MMP11 <dbl>, MYBL2 <dbl>, SFRP1 <dbl>, CCNE1 <dbl>,
## #   BLVRA <dbl>, BAG1 <dbl>, MLPH <dbl>, CDC20 <dbl>, CENPF <dbl>, MIA <dbl>,
## #   KRT17 <dbl>, FOXA1 <dbl>, ACTR3B <dbl>, CCNB1 <dbl>, MDM2 <dbl>, MYC <dbl>,
## #   CEP55 <dbl>, SLC39A6 <dbl>, ERBB2 <dbl>, GRB7 <dbl>, KIF2C <dbl>,
## #   NUF2 <dbl>, EGFR <dbl>, MKI67 <dbl>, TMEM45B <dbl>
…
